Network Explorer
…
make_table("Japan", 2012, info = "target", direction = "outflow")

## # A tibble: 77 x 3
##    target         source   flow
##    <chr>          <chr>   <dbl>
##  1 United States  Japan  19169 
##  2 Australia      Japan  10573.
##  3 Indonesia      Japan   7962 
##  4 China          Japan   7352.
##  5 Thailand       Japan   5816.
##  6 South Korea    Japan   4123.
##  7 Canada         Japan   3795.
##  8 Vietnam        Japan   2863.
##  9 United Kingdom Japan   2749.
## 10 France         Japan   2554.
## # … with 67 more rows
